[29-Apr-2015 18:06:47 UTC] PHP Strict Standards:  Only variables should be assigned by reference in /srv/users/serverpilot/apps/artstrailwp/public/wp-content/themes/artstrail/content-single-job_listing.php on line 21
[29-Apr-2015 18:09:03 UTC] PHP Strict Standards:  Only variables should be assigned by reference in /srv/users/serverpilot/apps/artstrailwp/public/wp-content/themes/artstrail/content-single-job_listing.php on line 21
[29-Apr-2015 18:11:22 UTC] PHP Strict Standards:  Only variables should be assigned by reference in /srv/users/serverpilot/apps/artstrailwp/public/wp-content/themes/artstrail/content-single-job_listing.php on line 21
[29-Apr-2015 18:12:01 UTC] PHP Strict Standards:  Only variables should be assigned by reference in /srv/users/serverpilot/apps/artstrailwp/public/wp-content/themes/artstrail/content-single-job_listing.php on line 21
[29-Apr-2015 18:12:52 UTC] PHP Strict Standards:  Only variables should be assigned by reference in /srv/users/serverpilot/apps/artstrailwp/public/wp-content/themes/artstrail/content-single-job_listing.php on line 21
[29-Apr-2015 18:13:53 UTC] PHP Strict Standards:  Only variables should be assigned by reference in /srv/users/serverpilot/apps/artstrailwp/public/wp-content/themes/artstrail/content-single-job_listing.php on line 21
[29-Apr-2015 18:14:21 UTC] PHP Strict Standards:  Only variables should be assigned by reference in /srv/users/serverpilot/apps/artstrailwp/public/wp-content/themes/artstrail/content-single-job_listing.php on line 21
[29-Apr-2015 18:14:54 UTC] PHP Strict Standards:  Only variables should be assigned by reference in /srv/users/serverpilot/apps/artstrailwp/public/wp-content/themes/artstrail/content-single-job_listing.php on line 21
[29-Apr-2015 18:15:18 UTC] PHP Strict Standards:  Only variables should be assigned by reference in /srv/users/serverpilot/apps/artstrailwp/public/wp-content/themes/artstrail/content-single-job_listing.php on line 21
[29-Apr-2015 18:17:24 UTC] PHP Strict Standards:  Only variables should be assigned by reference in /srv/users/serverpilot/apps/artstrailwp/public/wp-content/themes/artstrail/content-single-job_listing.php on line 21
[29-Apr-2015 18:18:29 UTC] PHP Strict Standards:  Only variables should be assigned by reference in /srv/users/serverpilot/apps/artstrailwp/public/wp-content/themes/artstrail/content-single-job_listing.php on line 21
[29-Apr-2015 18:19:11 UTC] PHP Strict Standards:  Only variables should be assigned by reference in /srv/users/serverpilot/apps/artstrailwp/public/wp-content/themes/artstrail/content-single-job_listing.php on line 21
[29-Apr-2015 18:22:21 UTC] PHP Strict Standards:  Only variables should be assigned by reference in /srv/users/serverpilot/apps/artstrailwp/public/wp-content/themes/artstrail/content-single-job_listing.php on line 21
[29-Apr-2015 18:22:26 UTC] PHP Strict Standards:  Only variables should be assigned by reference in /srv/users/serverpilot/apps/artstrailwp/public/wp-content/themes/artstrail/content-single-job_listing.php on line 21
[29-Apr-2015 18:22:57 UTC] PHP Strict Standards:  Only variables should be assigned by reference in /srv/users/serverpilot/apps/artstrailwp/public/wp-content/themes/artstrail/content-single-job_listing.php on line 21
[29-Apr-2015 18:24:36 UTC] PHP Strict Standards:  Only variables should be assigned by reference in /srv/users/serverpilot/apps/artstrailwp/public/wp-content/themes/artstrail/content-single-job_listing.php on line 21
[29-Apr-2015 18:28:13 UTC] PHP Strict Standards:  Only variables should be assigned by reference in /srv/users/serverpilot/apps/artstrailwp/public/wp-content/themes/artstrail/content-single-job_listing.php on line 21
[29-Apr-2015 18:28:53 UTC] PHP Strict Standards:  Only variables should be assigned by reference in /srv/users/serverpilot/apps/artstrailwp/public/wp-content/themes/artstrail/content-single-job_listing.php on line 21
[29-Apr-2015 18:29:29 UTC] PHP Strict Standards:  Only variables should be assigned by reference in /srv/users/serverpilot/apps/artstrailwp/public/wp-content/themes/artstrail/content-single-job_listing.php on line 21
[29-Apr-2015 18:32:39 UTC] PHP Strict Standards:  Only variables should be assigned by reference in /srv/users/serverpilot/apps/artstrailwp/public/wp-content/themes/artstrail/content-single-job_listing.php on line 21
[29-Apr-2015 18:34:26 UTC] PHP Strict Standards:  Only variables should be assigned by reference in /srv/users/serverpilot/apps/artstrailwp/public/wp-content/themes/artstrail/content-single-job_listing.php on line 21
[29-Apr-2015 18:34:35 UTC] PHP Strict Standards:  Only variables should be assigned by reference in /srv/users/serverpilot/apps/artstrailwp/public/wp-content/themes/artstrail/content-single-job_listing.php on line 21
[29-Apr-2015 18:34:52 UTC] PHP Strict Standards:  Only variables should be assigned by reference in /srv/users/serverpilot/apps/artstrailwp/public/wp-content/themes/artstrail/content-single-job_listing.php on line 21
[29-Apr-2015 18:34:52 UTC] PHP Strict Standards:  Only variables should be assigned by reference in /srv/users/serverpilot/apps/artstrailwp/public/wp-content/themes/artstrail/content-single-job_listing.php on line 21
[29-Apr-2015 18:36:31 UTC] PHP Strict Standards:  Only variables should be assigned by reference in /srv/users/serverpilot/apps/artstrailwp/public/wp-content/themes/artstrail/content-single-job_listing.php on line 21
[30-Apr-2015 08:02:34 UTC] PHP Strict Standards:  Only variables should be assigned by reference in /srv/users/serverpilot/apps/artstrailwp/public/wp-content/themes/artstrail/content-single-job_listing.php on line 21
[30-Apr-2015 11:15:49 UTC] PHP Strict Standards:  Only variables should be assigned by reference in /srv/users/serverpilot/apps/artstrailwp/public/wp-content/themes/artstrail/content-single-job_listing.php on line 21
[30-Apr-2015 14:56:12 UTC] PHP Strict Standards:  Only variables should be assigned by reference in /srv/users/serverpilot/apps/artstrailwp/public/wp-content/themes/artstrail/content-single-job_listing.php on line 21
[30-Apr-2015 17:09:30 UTC] PHP Strict Standards:  Only variables should be assigned by reference in /srv/users/serverpilot/apps/artstrailwp/public/wp-content/themes/artstrail/content-single-job_listing.php on line 21
[05-May-2015 05:21:50 UTC] PHP Strict Standards:  Only variables should be assigned by reference in /srv/users/serverpilot/apps/artstrailwp/public/wp-content/themes/artstrail/content-single-job_listing.php on line 21
[08-May-2015 08:43:15 UTC] PHP Strict Standards:  Only variables should be assigned by reference in /srv/users/serverpilot/apps/artstrailwp/public/wp-content/themes/artstrail/content-single-job_listing.php on line 21
[08-May-2015 08:43:15 UTC] PHP Strict Standards:  Only variables should be assigned by reference in /srv/users/serverpilot/apps/artstrailwp/public/wp-content/themes/artstrail/content-single-job_listing.php on line 21
[09-May-2015 15:25:22 UTC] PHP Strict Standards:  Only variables should be assigned by reference in /srv/users/serverpilot/apps/artstrailwp/public/wp-content/themes/artstrail/content-single-job_listing.php on line 21
[09-May-2015 15:27:02 UTC] PHP Strict Standards:  Only variables should be assigned by reference in /srv/users/serverpilot/apps/artstrailwp/public/wp-content/themes/artstrail/content-single-job_listing.php on line 21
[09-May-2015 15:42:04 UTC] PHP Strict Standards:  Only variables should be assigned by reference in /srv/users/serverpilot/apps/artstrailwp/public/wp-content/themes/artstrail/content-single-job_listing.php on line 21
[09-May-2015 15:42:06 UTC] PHP Strict Standards:  Only variables should be assigned by reference in /srv/users/serverpilot/apps/artstrailwp/public/wp-content/themes/artstrail/content-single-job_listing.php on line 21
[09-May-2015 15:42:20 UTC] PHP Strict Standards:  Only variables should be assigned by reference in /srv/users/serverpilot/apps/artstrailwp/public/wp-content/themes/artstrail/content-single-job_listing.php on line 21
[09-May-2015 15:42:21 UTC] PHP Strict Standards:  Only variables should be assigned by reference in /srv/users/serverpilot/apps/artstrailwp/public/wp-content/themes/artstrail/content-single-job_listing.php on line 21
[09-May-2015 15:42:22 UTC] PHP Strict Standards:  Only variables should be assigned by reference in /srv/users/serverpilot/apps/artstrailwp/public/wp-content/themes/artstrail/content-single-job_listing.php on line 21
[09-May-2015 15:42:31 UTC] PHP Strict Standards:  Only variables should be assigned by reference in /srv/users/serverpilot/apps/artstrailwp/public/wp-content/themes/artstrail/content-single-job_listing.php on line 21
[10-May-2015 06:01:04 UTC] PHP Strict Standards:  Only variables should be assigned by reference in /srv/users/serverpilot/apps/artstrailwp/public/wp-content/themes/artstrail/content-single-job_listing.php on line 21
[16-May-2015 02:26:09 UTC] PHP Strict Standards:  Only variables should be assigned by reference in /srv/users/serverpilot/apps/artstrailwp/public/wp-content/themes/artstrail/content-single-job_listing.php on line 21
[16-May-2015 11:13:47 UTC] PHP Strict Standards:  Only variables should be assigned by reference in /srv/users/serverpilot/apps/artstrailwp/public/wp-content/themes/artstrail/content-single-job_listing.php on line 21
[18-May-2015 13:14:10 UTC] PHP Strict Standards:  Only variables should be assigned by reference in /srv/users/serverpilot/apps/artstrailwp/public/wp-content/themes/artstrail/content-single-job_listing.php on line 21
[19-May-2015 17:41:22 UTC] PHP Strict Standards:  Only variables should be assigned by reference in /srv/users/serverpilot/apps/artstrailwp/public/wp-content/themes/artstrail/content-single-job_listing.php on line 21
[20-May-2015 20:53:02 UTC] PHP Strict Standards:  Only variables should be assigned by reference in /srv/users/serverpilot/apps/artstrailwp/public/wp-content/themes/artstrail/content-single-job_listing.php on line 21
[20-May-2015 20:59:28 UTC] PHP Strict Standards:  Only variables should be assigned by reference in /srv/users/serverpilot/apps/artstrailwp/public/wp-content/themes/artstrail/content-single-job_listing.php on line 21
[21-May-2015 18:07:14 UTC] PHP Strict Standards:  Only variables should be assigned by reference in /srv/users/serverpilot/apps/artstrailwp/public/wp-content/themes/artstrail/content-single-job_listing.php on line 21
[21-May-2015 20:15:18 UTC] PHP Strict Standards:  Only variables should be assigned by reference in /srv/users/serverpilot/apps/artstrailwp/public/wp-content/themes/artstrail/content-single-job_listing.php on line 21
[23-May-2015 02:30:33 UTC] PHP Strict Standards:  Only variables should be assigned by reference in /srv/users/serverpilot/apps/artstrailwp/public/wp-content/themes/artstrail/content-single-job_listing.php on line 21
[23-May-2015 04:14:18 UTC] PHP Strict Standards:  Only variables should be assigned by reference in /srv/users/serverpilot/apps/artstrailwp/public/wp-content/themes/artstrail/content-single-job_listing.php on line 21
[23-May-2015 08:11:19 UTC] PHP Strict Standards:  Only variables should be assigned by reference in /srv/users/serverpilot/apps/artstrailwp/public/wp-content/themes/artstrail/content-single-job_listing.php on line 21
[23-May-2015 08:11:33 UTC] PHP Strict Standards:  Only variables should be assigned by reference in /srv/users/serverpilot/apps/artstrailwp/public/wp-content/themes/artstrail/content-single-job_listing.php on line 21
[23-May-2015 08:13:39 UTC] PHP Strict Standards:  Only variables should be assigned by reference in /srv/users/serverpilot/apps/artstrailwp/public/wp-content/themes/artstrail/content-single-job_listing.php on line 21
[23-May-2015 10:31:32 UTC] PHP Strict Standards:  Only variables should be assigned by reference in /srv/users/serverpilot/apps/artstrailwp/public/wp-content/themes/artstrail/content-single-job_listing.php on line 21
[24-May-2015 09:21:06 UTC] PHP Strict Standards:  Only variables should be assigned by reference in /srv/users/serverpilot/apps/artstrailwp/public/wp-content/themes/artstrail/content-single-job_listing.php on line 21
[25-May-2015 03:06:56 UTC] PHP Strict Standards:  Only variables should be assigned by reference in /srv/users/serverpilot/apps/artstrailwp/public/wp-content/themes/artstrail/content-single-job_listing.php on line 21
[25-May-2015 10:24:57 UTC] PHP Strict Standards:  Only variables should be assigned by reference in /srv/users/serverpilot/apps/artstrailwp/public/wp-content/themes/artstrail/content-single-job_listing.php on line 21
[26-May-2015 07:12:00 UTC] PHP Strict Standards:  Only variables should be assigned by reference in /srv/users/serverpilot/apps/artstrailwp/public/wp-content/themes/artstrail/content-single-job_listing.php on line 21
[26-May-2015 09:47:05 UTC] PHP Strict Standards:  Only variables should be assigned by reference in /srv/users/serverpilot/apps/artstrailwp/public/wp-content/themes/artstrail/content-single-job_listing.php on line 21
[26-May-2015 09:49:25 UTC] PHP Strict Standards:  Only variables should be assigned by reference in /srv/users/serverpilot/apps/artstrailwp/public/wp-content/themes/artstrail/content-single-job_listing.php on line 21
[26-May-2015 09:50:30 UTC] PHP Strict Standards:  Only variables should be assigned by reference in /srv/users/serverpilot/apps/artstrailwp/public/wp-content/themes/artstrail/content-single-job_listing.php on line 21
[27-May-2015 23:10:53 UTC] PHP Strict Standards:  Only variables should be assigned by reference in /srv/users/serverpilot/apps/artstrailwp/public/wp-content/themes/artstrail/content-single-job_listing.php on line 21
[28-May-2015 09:56:55 UTC] PHP Strict Standards:  Only variables should be assigned by reference in /srv/users/serverpilot/apps/artstrailwp/public/wp-content/themes/artstrail/content-single-job_listing.php on line 21
[29-May-2015 03:07:08 UTC] PHP Strict Standards:  Only variables should be assigned by reference in /srv/users/serverpilot/apps/artstrailwp/public/wp-content/themes/artstrail/content-single-job_listing.php on line 21
[29-May-2015 19:08:45 UTC] PHP Strict Standards:  Only variables should be assigned by reference in /srv/users/serverpilot/apps/artstrailwp/public/wp-content/themes/artstrail/content-single-job_listing.php on line 21
[01-Jun-2015 06:30:53 UTC] PHP Strict Standards:  Only variables should be assigned by reference in /srv/users/serverpilot/apps/artstrailwp/public/wp-content/themes/artstrail/content-single-job_listing.php on line 21
[04-Jun-2015 16:55:02 UTC] PHP Strict Standards:  Only variables should be assigned by reference in /srv/users/serverpilot/apps/artstrailwp/public/wp-content/themes/artstrail/content-single-job_listing.php on line 21
[10-Jun-2015 12:53:52 UTC] PHP Strict Standards:  Only variables should be assigned by reference in /srv/users/serverpilot/apps/artstrailwp/public/wp-content/themes/artstrail/content-single-job_listing.php on line 21
[10-Jun-2015 13:02:35 UTC] PHP Strict Standards:  Only variables should be assigned by reference in /srv/users/serverpilot/apps/artstrailwp/public/wp-content/themes/artstrail/content-single-job_listing.php on line 21
[12-Jun-2015 19:15:19 UTC] PHP Strict Standards:  Only variables should be assigned by reference in /srv/users/serverpilot/apps/artstrailwp/public/wp-content/themes/artstrail/content-single-job_listing.php on line 21
[15-Jun-2015 10:37:50 UTC] PHP Strict Standards:  Only variables should be assigned by reference in /srv/users/serverpilot/apps/artstrailwp/public/wp-content/themes/artstrail/content-single-job_listing.php on line 21
[16-Jun-2015 06:02:12 UTC] PHP Strict Standards:  Only variables should be assigned by reference in /srv/users/serverpilot/apps/artstrailwp/public/wp-content/themes/artstrail/content-single-job_listing.php on line 21
[16-Jun-2015 11:39:25 UTC] PHP Strict Standards:  Only variables should be assigned by reference in /srv/users/serverpilot/apps/artstrailwp/public/wp-content/themes/artstrail/content-single-job_listing.php on line 21
[16-Jun-2015 11:47:22 UTC] PHP Notice:  Trying to get property of non-object in /srv/users/serverpilot/apps/artstrailwp/public/wp-content/plugins/woocommerce-gateway-stripe/includes/class-wc-gateway-stripe-addons.php on line 119
[16-Jun-2015 12:13:43 UTC] PHP Strict Standards:  Only variables should be assigned by reference in /srv/users/serverpilot/apps/artstrailwp/public/wp-content/themes/artstrail/content-single-job_listing.php on line 21
[17-Jun-2015 10:00:45 UTC] PHP Strict Standards:  Only variables should be assigned by reference in /srv/users/serverpilot/apps/artstrailwp/public/wp-content/themes/artstrail/content-single-job_listing.php on line 21
[20-Jun-2015 03:27:31 UTC] PHP Strict Standards:  Only variables should be assigned by reference in /srv/users/serverpilot/apps/artstrailwp/public/wp-content/themes/artstrail/content-single-job_listing.php on line 21
[20-Jun-2015 09:49:59 UTC] PHP Strict Standards:  Only variables should be assigned by reference in /srv/users/serverpilot/apps/artstrailwp/public/wp-content/themes/artstrail/content-single-job_listing.php on line 21
[21-Jun-2015 01:44:02 UTC] PHP Strict Standards:  Only variables should be assigned by reference in /srv/users/serverpilot/apps/artstrailwp/public/wp-content/themes/artstrail/content-single-job_listing.php on line 21
[22-Jun-2015 09:02:26 UTC] PHP Strict Standards:  Only variables should be assigned by reference in /srv/users/serverpilot/apps/artstrailwp/public/wp-content/themes/artstrail/content-single-job_listing.php on line 21
[24-Jun-2015 10:18:48 UTC] PHP Strict Standards:  Only variables should be assigned by reference in /srv/users/serverpilot/apps/artstrailwp/public/wp-content/themes/artstrail/content-single-job_listing.php on line 21
[25-Jun-2015 16:28:48 UTC] PHP Strict Standards:  Only variables should be assigned by reference in /srv/users/serverpilot/apps/artstrailwp/public/wp-content/themes/artstrail/content-single-job_listing.php on line 21
[25-Jun-2015 19:50:13 UTC] PHP Strict Standards:  Only variables should be assigned by reference in /srv/users/serverpilot/apps/artstrailwp/public/wp-content/themes/artstrail/content-single-job_listing.php on line 21
[26-Jun-2015 01:45:58 UTC] PHP Strict Standards:  Only variables should be assigned by reference in /srv/users/serverpilot/apps/artstrailwp/public/wp-content/themes/artstrail/content-single-job_listing.php on line 21
[26-Jun-2015 09:52:05 UTC] PHP Strict Standards:  Only variables should be assigned by reference in /srv/users/serverpilot/apps/artstrailwp/public/wp-content/themes/artstrail/content-single-job_listing.php on line 21
[27-Jun-2015 12:09:27 UTC] PHP Strict Standards:  Only variables should be assigned by reference in /srv/users/serverpilot/apps/artstrailwp/public/wp-content/themes/artstrail/content-single-job_listing.php on line 21
[28-Jun-2015 17:46:32 UTC] PHP Strict Standards:  Only variables should be assigned by reference in /srv/users/serverpilot/apps/artstrailwp/public/wp-content/themes/artstrail/content-single-job_listing.php on line 21
[30-Jun-2015 06:58:10 UTC] PHP Strict Standards:  Only variables should be assigned by reference in /srv/users/serverpilot/apps/artstrailwp/public/wp-content/themes/artstrail/content-single-job_listing.php on line 21
[30-Jun-2015 06:58:12 UTC] PHP Strict Standards:  Only variables should be assigned by reference in /srv/users/serverpilot/apps/artstrailwp/public/wp-content/themes/artstrail/content-single-job_listing.php on line 21
[30-Jun-2015 16:19:03 UTC] PHP Strict Standards:  Only variables should be assigned by reference in /srv/users/serverpilot/apps/artstrailwp/public/wp-content/themes/artstrail/content-single-job_listing.php on line 21
[04-Jul-2015 03:57:14 UTC] PHP Strict Standards:  Only variables should be assigned by reference in /srv/users/serverpilot/apps/artstrailwp/public/wp-content/themes/artstrail/content-single-job_listing.php on line 21
[04-Jul-2015 07:28:16 UTC] PHP Strict Standards:  Only variables should be assigned by reference in /srv/users/serverpilot/apps/artstrailwp/public/wp-content/themes/artstrail/content-single-job_listing.php on line 21
[07-Jul-2015 08:19:46 UTC] PHP Strict Standards:  Only variables should be assigned by reference in /srv/users/serverpilot/apps/artstrailwp/public/wp-content/themes/artstrail/content-single-job_listing.php on line 21
[07-Jul-2015 08:50:10 UTC] PHP Strict Standards:  Only variables should be assigned by reference in /srv/users/serverpilot/apps/artstrailwp/public/wp-content/themes/artstrail/content-single-job_listing.php on line 21
[07-Jul-2015 08:50:17 UTC] PHP Strict Standards:  Only variables should be assigned by reference in /srv/users/serverpilot/apps/artstrailwp/public/wp-content/themes/artstrail/content-single-job_listing.php on line 21
[07-Jul-2015 08:52:09 UTC] PHP Strict Standards:  Only variables should be assigned by reference in /srv/users/serverpilot/apps/artstrailwp/public/wp-content/themes/artstrail/content-single-job_listing.php on line 21
[07-Jul-2015 08:54:40 UTC] PHP Strict Standards:  Only variables should be assigned by reference in /srv/users/serverpilot/apps/artstrailwp/public/wp-content/themes/artstrail/content-single-job_listing.php on line 21
[07-Jul-2015 08:56:11 UTC] PHP Strict Standards:  Only variables should be assigned by reference in /srv/users/serverpilot/apps/artstrailwp/public/wp-content/themes/artstrail/content-single-job_listing.php on line 21
[07-Jul-2015 08:56:25 UTC] PHP Strict Standards:  Only variables should be assigned by reference in /srv/users/serverpilot/apps/artstrailwp/public/wp-content/themes/artstrail/content-single-job_listing.php on line 21
[07-Jul-2015 16:59:16 UTC] PHP Strict Standards:  Only variables should be assigned by reference in /srv/users/serverpilot/apps/artstrailwp/public/wp-content/themes/artstrail/content-single-job_listing.php on line 21
[07-Jul-2015 17:05:47 UTC] PHP Strict Standards:  Only variables should be assigned by reference in /srv/users/serverpilot/apps/artstrailwp/public/wp-content/themes/artstrail/content-single-job_listing.php on line 21
[08-Jul-2015 04:22:41 UTC] PHP Strict Standards:  Only variables should be assigned by reference in /srv/users/serverpilot/apps/artstrailwp/public/wp-content/themes/artstrail/content-single-job_listing.php on line 21
[11-Jul-2015 12:57:47 UTC] PHP Strict Standards:  Only variables should be assigned by reference in /srv/users/serverpilot/apps/artstrailwp/public/wp-content/themes/artstrail/content-single-job_listing.php on line 21
[11-Jul-2015 14:10:37 UTC] PHP Strict Standards:  Only variables should be assigned by reference in /srv/users/serverpilot/apps/artstrailwp/public/wp-content/themes/artstrail/content-single-job_listing.php on line 21
[11-Jul-2015 14:13:54 UTC] PHP Strict Standards:  Only variables should be assigned by reference in /srv/users/serverpilot/apps/artstrailwp/public/wp-content/themes/artstrail/content-single-job_listing.php on line 21
[11-Jul-2015 14:17:17 UTC] PHP Strict Standards:  Only variables should be assigned by reference in /srv/users/serverpilot/apps/artstrailwp/public/wp-content/themes/artstrail/content-single-job_listing.php on line 21
[11-Jul-2015 18:30:44 UTC] PHP Strict Standards:  Only variables should be assigned by reference in /srv/users/serverpilot/apps/artstrailwp/public/wp-content/themes/artstrail/content-single-job_listing.php on line 21
[12-Jul-2015 23:37:16 UTC] PHP Strict Standards:  Only variables should be assigned by reference in /srv/users/serverpilot/apps/artstrailwp/public/wp-content/themes/artstrail/content-single-job_listing.php on line 21
[13-Jul-2015 05:52:50 UTC] PHP Strict Standards:  Only variables should be assigned by reference in /srv/users/serverpilot/apps/artstrailwp/public/wp-content/themes/artstrail/content-single-job_listing.php on line 21
[13-Jul-2015 07:14:48 UTC] PHP Strict Standards:  Only variables should be assigned by reference in /srv/users/serverpilot/apps/artstrailwp/public/wp-content/themes/artstrail/content-single-job_listing.php on line 21
[13-Jul-2015 07:40:30 UTC] PHP Strict Standards:  Only variables should be assigned by reference in /srv/users/serverpilot/apps/artstrailwp/public/wp-content/themes/artstrail/content-single-job_listing.php on line 21
[13-Jul-2015 07:50:10 UTC] PHP Notice:  Trying to get property of non-object in /srv/users/serverpilot/apps/artstrailwp/public/wp-content/plugins/woocommerce-gateway-stripe/includes/class-wc-gateway-stripe-addons.php on line 119
[13-Jul-2015 12:59:13 UTC] PHP Strict Standards:  Only variables should be assigned by reference in /srv/users/serverpilot/apps/artstrailwp/public/wp-content/themes/artstrail/content-single-job_listing.php on line 21
[13-Jul-2015 12:59:28 UTC] PHP Strict Standards:  Only variables should be assigned by reference in /srv/users/serverpilot/apps/artstrailwp/public/wp-content/themes/artstrail/content-single-job_listing.php on line 21
[13-Jul-2015 16:36:13 UTC] PHP Strict Standards:  Only variables should be assigned by reference in /srv/users/serverpilot/apps/artstrailwp/public/wp-content/themes/artstrail/content-single-job_listing.php on line 21
[13-Jul-2015 16:38:08 UTC] PHP Strict Standards:  Only variables should be assigned by reference in /srv/users/serverpilot/apps/artstrailwp/public/wp-content/themes/artstrail/content-single-job_listing.php on line 21
[14-Jul-2015 06:36:28 UTC] PHP Strict Standards:  Only variables should be assigned by reference in /srv/users/serverpilot/apps/artstrailwp/public/wp-content/themes/artstrail/content-single-job_listing.php on line 21
[14-Jul-2015 06:37:29 UTC] PHP Strict Standards:  Only variables should be assigned by reference in /srv/users/serverpilot/apps/artstrailwp/public/wp-content/themes/artstrail/content-single-job_listing.php on line 21
[14-Jul-2015 06:53:21 UTC] PHP Strict Standards:  Only variables should be assigned by reference in /srv/users/serverpilot/apps/artstrailwp/public/wp-content/themes/artstrail/content-single-job_listing.php on line 21
[14-Jul-2015 07:02:01 UTC] PHP Notice:  Trying to get property of non-object in /srv/users/serverpilot/apps/artstrailwp/public/wp-content/plugins/woocommerce-gateway-stripe/includes/class-wc-gateway-stripe-addons.php on line 119
[14-Jul-2015 07:03:44 UTC] PHP Strict Standards:  Only variables should be assigned by reference in /srv/users/serverpilot/apps/artstrailwp/public/wp-content/themes/artstrail/content-single-job_listing.php on line 21
[14-Jul-2015 15:03:54 UTC] PHP Notice:  Undefined index: wp-job-manager-field-editor/wp-job-manager-field-editor.php in /srv/users/serverpilot/apps/artstrailwp/public/wp-content/plugins/wp-job-manager-field-editor/includes/smyles-update/class-smyles-update.php on line 283
[14-Jul-2015 15:04:28 UTC] PHP Notice:  Undefined index: plugin in /srv/users/serverpilot/apps/artstrailwp/public/wp-admin/includes/update.php on line 281
[14-Jul-2015 15:04:29 UTC] PHP Notice:  Undefined index: plugin in /srv/users/serverpilot/apps/artstrailwp/public/wp-admin/includes/update.php on line 281
[14-Jul-2015 15:04:29 UTC] PHP Notice:  Undefined index: plugin in /srv/users/serverpilot/apps/artstrailwp/public/wp-admin/includes/update.php on line 281
[14-Jul-2015 15:04:29 UTC] PHP Notice:  Undefined index: plugin in /srv/users/serverpilot/apps/artstrailwp/public/wp-admin/includes/update.php on line 281
[14-Jul-2015 15:04:29 UTC] PHP Notice:  Undefined index: plugin in /srv/users/serverpilot/apps/artstrailwp/public/wp-admin/includes/update.php on line 281
[14-Jul-2015 15:05:26 UTC] PHP Notice:  Undefined index: plugin in /srv/users/serverpilot/apps/artstrailwp/public/wp-admin/includes/update.php on line 281
[14-Jul-2015 15:05:26 UTC] PHP Notice:  Undefined index: plugin in /srv/users/serverpilot/apps/artstrailwp/public/wp-admin/includes/update.php on line 281
[14-Jul-2015 15:05:26 UTC] PHP Notice:  Undefined index: plugin in /srv/users/serverpilot/apps/artstrailwp/public/wp-admin/includes/update.php on line 281
[14-Jul-2015 15:05:26 UTC] PHP Notice:  Undefined index: plugin in /srv/users/serverpilot/apps/artstrailwp/public/wp-admin/includes/update.php on line 281
[14-Jul-2015 15:05:26 UTC] PHP Notice:  Undefined index: plugin in /srv/users/serverpilot/apps/artstrailwp/public/wp-admin/includes/update.php on line 281
[14-Jul-2015 15:06:13 UTC] PHP Notice:  Undefined index: submit in /srv/users/serverpilot/apps/artstrailwp/public/wp-content/plugins/disable-user/disable-user.php on line 91
[14-Jul-2015 15:06:20 UTC] PHP Warning:  Missing argument 2 for wpdb::prepare(), called in /srv/users/serverpilot/apps/artstrailwp/public/wp-content/plugins/disable-user/disable-user.php on line 84 and defined in /srv/users/serverpilot/apps/artstrailwp/public/wp-includes/wp-db.php on line 1210
[14-Jul-2015 15:06:20 UTC] PHP Notice:  wpdb::prepare was called <strong>incorrectly</strong>. The query argument of wpdb::prepare() must have a placeholder. Please see <a href="https://codex.wordpress.org/Debugging_in_WordPress">Debugging in WordPress</a> for more information. (This message was added in version 3.9.) in /srv/users/serverpilot/apps/artstrailwp/public/wp-includes/functions.php on line 3560
[14-Jul-2015 15:31:52 UTC] PHP Notice:  Undefined index: submit in /home/theartstrailco/public_html/wp-content/plugins/disable-user/disable-user.php on line 91
[14-Jul-2015 15:31:57 UTC] PHP Warning:  Missing argument 2 for wpdb::prepare(), called in /home/theartstrailco/public_html/wp-content/plugins/disable-user/disable-user.php on line 84 and defined in /home/theartstrailco/public_html/wp-includes/wp-db.php on line 1210
[14-Jul-2015 15:31:57 UTC] PHP Notice:  wpdb::prepare was called <strong>incorrectly</strong>. The query argument of wpdb::prepare() must have a placeholder. Please see <a href="https://codex.wordpress.org/Debugging_in_WordPress">Debugging in WordPress</a> for more information. (This message was added in version 3.9.) in /home/theartstrailco/public_html/wp-includes/functions.php on line 3560
[14-Jul-2015 15:31:59 UTC] PHP Notice:  Undefined index: plugin in /home/theartstrailco/public_html/wp-admin/includes/update.php on line 281
[14-Jul-2015 15:32:00 UTC] PHP Notice:  Undefined index: plugin in /home/theartstrailco/public_html/wp-admin/includes/update.php on line 281
[14-Jul-2015 15:32:00 UTC] PHP Notice:  Undefined index: plugin in /home/theartstrailco/public_html/wp-admin/includes/update.php on line 281
[14-Jul-2015 15:32:00 UTC] PHP Notice:  Undefined index: plugin in /home/theartstrailco/public_html/wp-admin/includes/update.php on line 281
[14-Jul-2015 15:32:00 UTC] PHP Notice:  Undefined index: plugin in /home/theartstrailco/public_html/wp-admin/includes/update.php on line 281
[14-Jul-2015 15:32:04 UTC] PHP Notice:  Undefined index: plugin in /home/theartstrailco/public_html/wp-admin/includes/update.php on line 281
[14-Jul-2015 15:32:04 UTC] PHP Notice:  Undefined index: plugin in /home/theartstrailco/public_html/wp-admin/includes/update.php on line 281
[14-Jul-2015 15:32:04 UTC] PHP Notice:  Undefined index: plugin in /home/theartstrailco/public_html/wp-admin/includes/update.php on line 281
[14-Jul-2015 15:32:04 UTC] PHP Notice:  Undefined index: plugin in /home/theartstrailco/public_html/wp-admin/includes/update.php on line 281
[14-Jul-2015 15:32:04 UTC] PHP Notice:  Undefined index: plugin in /home/theartstrailco/public_html/wp-admin/includes/update.php on line 281
[14-Jul-2015 15:37:49 UTC] PHP Strict Standards:  Only variables should be assigned by reference in /home/theartstrailco/public_html/wp-content/themes/artstrail/content-single-job_listing.php on line 21
[14-Jul-2015 15:38:43 UTC] PHP Notice:  Undefined index: plugin in /home/theartstrailco/public_html/wp-admin/includes/update.php on line 281
[14-Jul-2015 15:38:43 UTC] PHP Notice:  Undefined index: plugin in /home/theartstrailco/public_html/wp-admin/includes/update.php on line 281
[14-Jul-2015 15:38:43 UTC] PHP Notice:  Undefined index: plugin in /home/theartstrailco/public_html/wp-admin/includes/update.php on line 281
[14-Jul-2015 15:38:43 UTC] PHP Notice:  Undefined index: plugin in /home/theartstrailco/public_html/wp-admin/includes/update.php on line 281
[14-Jul-2015 15:38:43 UTC] PHP Notice:  Undefined index: plugin in /home/theartstrailco/public_html/wp-admin/includes/update.php on line 281
[14-Jul-2015 15:38:49 UTC] PHP Notice:  Undefined index: plugin in /home/theartstrailco/public_html/wp-admin/includes/update.php on line 281
[14-Jul-2015 15:38:49 UTC] PHP Notice:  Undefined index: plugin in /home/theartstrailco/public_html/wp-admin/includes/update.php on line 281
[14-Jul-2015 15:38:49 UTC] PHP Notice:  Undefined index: plugin in /home/theartstrailco/public_html/wp-admin/includes/update.php on line 281
[14-Jul-2015 15:38:49 UTC] PHP Notice:  Undefined index: plugin in /home/theartstrailco/public_html/wp-admin/includes/update.php on line 281
[14-Jul-2015 15:38:49 UTC] PHP Notice:  Undefined index: plugin in /home/theartstrailco/public_html/wp-admin/includes/update.php on line 281
[14-Jul-2015 15:39:05 UTC] PHP Notice:  Undefined index: plugin in /home/theartstrailco/public_html/wp-admin/includes/update.php on line 281
[14-Jul-2015 15:39:05 UTC] PHP Notice:  Undefined index: plugin in /home/theartstrailco/public_html/wp-admin/includes/update.php on line 281
[14-Jul-2015 15:39:05 UTC] PHP Notice:  Undefined index: plugin in /home/theartstrailco/public_html/wp-admin/includes/update.php on line 281
[14-Jul-2015 15:39:05 UTC] PHP Notice:  Undefined index: plugin in /home/theartstrailco/public_html/wp-admin/includes/update.php on line 281
[14-Jul-2015 15:39:05 UTC] PHP Notice:  Undefined index: plugin in /home/theartstrailco/public_html/wp-admin/includes/update.php on line 281
[14-Jul-2015 15:40:12 UTC] PHP Notice:  Undefined index: plugin in /home/theartstrailco/public_html/wp-admin/includes/update.php on line 281
[14-Jul-2015 15:40:12 UTC] PHP Notice:  Undefined index: plugin in /home/theartstrailco/public_html/wp-admin/includes/update.php on line 281
[14-Jul-2015 15:40:12 UTC] PHP Notice:  Undefined index: plugin in /home/theartstrailco/public_html/wp-admin/includes/update.php on line 281
[14-Jul-2015 15:40:12 UTC] PHP Notice:  Undefined index: plugin in /home/theartstrailco/public_html/wp-admin/includes/update.php on line 281
[14-Jul-2015 15:40:12 UTC] PHP Notice:  Undefined index: plugin in /home/theartstrailco/public_html/wp-admin/includes/update.php on line 281
[14-Jul-2015 15:40:20 UTC] PHP Notice:  Undefined index: reply_to in /home/theartstrailco/public_html/wp-content/plugins/wpmandrill/wpmandrill.php on line 410
[16-Jul-2015 04:53:21 UTC] PHP Strict Standards:  Only variables should be assigned by reference in /home/theartstrailco/public_html/wp-content/themes/artstrail/content-single-job_listing.php on line 21
[16-Jul-2015 04:53:23 UTC] PHP Strict Standards:  Only variables should be assigned by reference in /home/theartstrailco/public_html/wp-content/themes/artstrail/content-single-job_listing.php on line 21
[16-Jul-2015 04:53:26 UTC] PHP Strict Standards:  Only variables should be assigned by reference in /home/theartstrailco/public_html/wp-content/themes/artstrail/content-single-job_listing.php on line 21
[16-Jul-2015 04:53:28 UTC] PHP Strict Standards:  Only variables should be assigned by reference in /home/theartstrailco/public_html/wp-content/themes/artstrail/content-single-job_listing.php on line 21
[16-Jul-2015 04:53:33 UTC] PHP Strict Standards:  Only variables should be assigned by reference in /home/theartstrailco/public_html/wp-content/themes/artstrail/content-single-job_listing.php on line 21
[16-Jul-2015 10:23:03 UTC] PHP Strict Standards:  Only variables should be assigned by reference in /home/theartstrailco/public_html/wp-content/themes/artstrail/content-single-job_listing.php on line 21
[16-Jul-2015 10:23:55 UTC] PHP Strict Standards:  Only variables should be assigned by reference in /home/theartstrailco/public_html/wp-content/themes/artstrail/content-single-job_listing.php on line 21
[16-Jul-2015 14:02:03 UTC] PHP Strict Standards:  Only variables should be assigned by reference in /home/theartstrailco/public_html/wp-content/themes/artstrail/content-single-job_listing.php on line 21
[16-Jul-2015 14:03:07 UTC] PHP Strict Standards:  Only variables should be assigned by reference in /home/theartstrailco/public_html/wp-content/themes/artstrail/content-single-job_listing.php on line 21
[16-Jul-2015 14:04:08 UTC] PHP Strict Standards:  Only variables should be assigned by reference in /home/theartstrailco/public_html/wp-content/themes/artstrail/content-single-job_listing.php on line 21
[16-Jul-2015 14:04:19 UTC] PHP Strict Standards:  Only variables should be assigned by reference in /home/theartstrailco/public_html/wp-content/themes/artstrail/content-single-job_listing.php on line 21
[16-Jul-2015 16:56:47 UTC] PHP Strict Standards:  Only variables should be assigned by reference in /home/theartstrailco/public_html/wp-content/themes/artstrail/content-single-job_listing.php on line 21
[16-Jul-2015 20:10:25 UTC] PHP Strict Standards:  Only variables should be assigned by reference in /home/theartstrailco/public_html/wp-content/themes/artstrail/content-single-job_listing.php on line 21
[16-Jul-2015 20:14:54 UTC] PHP Strict Standards:  Only variables should be assigned by reference in /home/theartstrailco/public_html/wp-content/themes/artstrail/content-single-job_listing.php on line 21
[17-Jul-2015 05:36:10 UTC] PHP Strict Standards:  Only variables should be assigned by reference in /home/theartstrailco/public_html/wp-content/themes/artstrail/content-single-job_listing.php on line 21
[17-Jul-2015 23:03:03 UTC] PHP Strict Standards:  Only variables should be assigned by reference in /home/theartstrailco/public_html/wp-content/themes/artstrail/content-single-job_listing.php on line 21
[18-Jul-2015 07:48:58 UTC] PHP Strict Standards:  Only variables should be assigned by reference in /home/theartstrailco/public_html/wp-content/themes/artstrail/content-single-job_listing.php on line 21
[18-Jul-2015 08:55:37 UTC] PHP Strict Standards:  Only variables should be assigned by reference in /home/theartstrailco/public_html/wp-content/themes/artstrail/content-single-job_listing.php on line 21
[19-Jul-2015 03:29:27 UTC] PHP Strict Standards:  Only variables should be assigned by reference in /home/theartstrailco/public_html/wp-content/themes/artstrail/content-single-job_listing.php on line 21
[19-Jul-2015 06:54:04 UTC] PHP Strict Standards:  Only variables should be assigned by reference in /home/theartstrailco/public_html/wp-content/themes/artstrail/content-single-job_listing.php on line 21
[20-Jul-2015 22:55:43 UTC] PHP Strict Standards:  Only variables should be assigned by reference in /home/theartstrailco/public_html/wp-content/themes/artstrail/content-single-job_listing.php on line 21
[23-Jul-2015 06:40:32 UTC] PHP Strict Standards:  Only variables should be assigned by reference in /home/theartstrailco/public_html/wp-content/themes/artstrail/content-single-job_listing.php on line 21
[23-Jul-2015 14:02:17 UTC] PHP Strict Standards:  Only variables should be assigned by reference in /home/theartstrailco/public_html/wp-content/themes/artstrail/content-single-job_listing.php on line 21
[24-Jul-2015 01:00:19 UTC] PHP Strict Standards:  Only variables should be assigned by reference in /home/theartstrailco/public_html/wp-content/themes/artstrail/content-single-job_listing.php on line 21
[24-Jul-2015 05:37:23 UTC] PHP Strict Standards:  Only variables should be assigned by reference in /home/theartstrailco/public_html/wp-content/themes/artstrail/content-single-job_listing.php on line 21
[24-Jul-2015 05:37:25 UTC] PHP Strict Standards:  Only variables should be assigned by reference in /home/theartstrailco/public_html/wp-content/themes/artstrail/content-single-job_listing.php on line 21
[24-Jul-2015 05:37:27 UTC] PHP Strict Standards:  Only variables should be assigned by reference in /home/theartstrailco/public_html/wp-content/themes/artstrail/content-single-job_listing.php on line 21
[24-Jul-2015 05:37:28 UTC] PHP Strict Standards:  Only variables should be assigned by reference in /home/theartstrailco/public_html/wp-content/themes/artstrail/content-single-job_listing.php on line 21
[24-Jul-2015 05:37:34 UTC] PHP Strict Standards:  Only variables should be assigned by reference in /home/theartstrailco/public_html/wp-content/themes/artstrail/content-single-job_listing.php on line 21
[25-Jul-2015 15:18:32 UTC] PHP Strict Standards:  Only variables should be assigned by reference in /home/theartstrailco/public_html/wp-content/themes/artstrail/content-single-job_listing.php on line 21
[26-Jul-2015 15:47:05 UTC] PHP Strict Standards:  Only variables should be assigned by reference in /home/theartstrailco/public_html/wp-content/themes/artstrail/content-single-job_listing.php on line 21
[27-Jul-2015 22:48:00 UTC] PHP Strict Standards:  Only variables should be assigned by reference in /home/theartstrailco/public_html/wp-content/themes/artstrail/content-single-job_listing.php on line 21
[30-Jul-2015 06:12:48 UTC] PHP Strict Standards:  Only variables should be assigned by reference in /home/theartstrailco/public_html/wp-content/themes/artstrail/content-single-job_listing.php on line 21
[30-Jul-2015 06:12:59 UTC] PHP Strict Standards:  Only variables should be assigned by reference in /home/theartstrailco/public_html/wp-content/themes/artstrail/content-single-job_listing.php on line 21
[30-Jul-2015 06:13:01 UTC] PHP Strict Standards:  Only variables should be assigned by reference in /home/theartstrailco/public_html/wp-content/themes/artstrail/content-single-job_listing.php on line 21
[30-Jul-2015 06:13:03 UTC] PHP Strict Standards:  Only variables should be assigned by reference in /home/theartstrailco/public_html/wp-content/themes/artstrail/content-single-job_listing.php on line 21
[30-Jul-2015 15:25:27 UTC] PHP Strict Standards:  Only variables should be assigned by reference in /home/theartstrailco/public_html/wp-content/themes/artstrail/content-single-job_listing.php on line 21
[30-Jul-2015 15:25:32 UTC] PHP Strict Standards:  Only variables should be assigned by reference in /home/theartstrailco/public_html/wp-content/themes/artstrail/content-single-job_listing.php on line 21
[30-Jul-2015 15:25:34 UTC] PHP Strict Standards:  Only variables should be assigned by reference in /home/theartstrailco/public_html/wp-content/themes/artstrail/content-single-job_listing.php on line 21
[30-Jul-2015 15:25:35 UTC] PHP Strict Standards:  Only variables should be assigned by reference in /home/theartstrailco/public_html/wp-content/themes/artstrail/content-single-job_listing.php on line 21
[30-Jul-2015 15:25:37 UTC] PHP Strict Standards:  Only variables should be assigned by reference in /home/theartstrailco/public_html/wp-content/themes/artstrail/content-single-job_listing.php on line 21
[30-Jul-2015 15:25:41 UTC] PHP Strict Standards:  Only variables should be assigned by reference in /home/theartstrailco/public_html/wp-content/themes/artstrail/content-single-job_listing.php on line 21
[30-Jul-2015 15:25:41 UTC] PHP Strict Standards:  Only variables should be assigned by reference in /home/theartstrailco/public_html/wp-content/themes/artstrail/content-single-job_listing.php on line 21
[01-Aug-2015 16:09:29 UTC] PHP Strict Standards:  Only variables should be assigned by reference in /home/theartstrailco/public_html/wp-content/themes/artstrail/content-single-job_listing.php on line 21
[01-Aug-2015 16:10:03 UTC] PHP Strict Standards:  Only variables should be assigned by reference in /home/theartstrailco/public_html/wp-content/themes/artstrail/content-single-job_listing.php on line 21
[01-Aug-2015 16:10:19 UTC] PHP Strict Standards:  Only variables should be assigned by reference in /home/theartstrailco/public_html/wp-content/themes/artstrail/content-single-job_listing.php on line 21
[01-Aug-2015 16:10:21 UTC] PHP Strict Standards:  Only variables should be assigned by reference in /home/theartstrailco/public_html/wp-content/themes/artstrail/content-single-job_listing.php on line 21
[03-Aug-2015 01:41:39 UTC] PHP Strict Standards:  Only variables should be assigned by reference in /home/theartstrailco/public_html/wp-content/themes/artstrail/content-single-job_listing.php on line 21
[04-Aug-2015 22:40:49 UTC] PHP Warning:  mysql_connect(): Can't connect to local MySQL server through socket '/var/lib/mysql/mysql.sock' (111) in /home/theartstrailco/public_html/wp-includes/wp-db.php on line 1473
[05-Aug-2015 15:53:35 UTC] PHP Strict Standards:  Only variables should be assigned by reference in /home/theartstrailco/public_html/wp-content/themes/artstrail/content-single-job_listing.php on line 21
[05-Aug-2015 15:53:42 UTC] PHP Strict Standards:  Only variables should be assigned by reference in /home/theartstrailco/public_html/wp-content/themes/artstrail/content-single-job_listing.php on line 21
[05-Aug-2015 16:01:50 UTC] PHP Strict Standards:  Only variables should be assigned by reference in /home/theartstrailco/public_html/wp-content/themes/artstrail/content-single-job_listing.php on line 21
[05-Aug-2015 16:01:56 UTC] PHP Strict Standards:  Only variables should be assigned by reference in /home/theartstrailco/public_html/wp-content/themes/artstrail/content-single-job_listing.php on line 21
[06-Aug-2015 07:28:57 UTC] PHP Strict Standards:  Only variables should be assigned by reference in /home/theartstrailco/public_html/wp-content/themes/artstrail/content-single-job_listing.php on line 21
[06-Aug-2015 07:29:01 UTC] PHP Strict Standards:  Only variables should be assigned by reference in /home/theartstrailco/public_html/wp-content/themes/artstrail/content-single-job_listing.php on line 21
[06-Aug-2015 07:29:03 UTC] PHP Strict Standards:  Only variables should be assigned by reference in /home/theartstrailco/public_html/wp-content/themes/artstrail/content-single-job_listing.php on line 21
[06-Aug-2015 07:29:04 UTC] PHP Strict Standards:  Only variables should be assigned by reference in /home/theartstrailco/public_html/wp-content/themes/artstrail/content-single-job_listing.php on line 21
[06-Aug-2015 07:29:05 UTC] PHP Strict Standards:  Only variables should be assigned by reference in /home/theartstrailco/public_html/wp-content/themes/artstrail/content-single-job_listing.php on line 21
[06-Aug-2015 14:15:42 UTC] PHP Strict Standards:  Only variables should be assigned by reference in /home/theartstrailco/public_html/wp-content/themes/artstrail/content-single-job_listing.php on line 21
[06-Aug-2015 14:16:02 UTC] PHP Strict Standards:  Only variables should be assigned by reference in /home/theartstrailco/public_html/wp-content/themes/artstrail/content-single-job_listing.php on line 21
[06-Aug-2015 14:17:45 UTC] PHP Strict Standards:  Only variables should be assigned by reference in /home/theartstrailco/public_html/wp-content/themes/artstrail/content-single-job_listing.php on line 21
[06-Aug-2015 14:18:00 UTC] PHP Strict Standards:  Only variables should be assigned by reference in /home/theartstrailco/public_html/wp-content/themes/artstrail/content-single-job_listing.php on line 21
[06-Aug-2015 14:18:51 UTC] PHP Strict Standards:  Only variables should be assigned by reference in /home/theartstrailco/public_html/wp-content/themes/artstrail/content-single-job_listing.php on line 21
[06-Aug-2015 14:19:20 UTC] PHP Strict Standards:  Only variables should be assigned by reference in /home/theartstrailco/public_html/wp-content/themes/artstrail/content-single-job_listing.php on line 21
[06-Aug-2015 14:32:08 UTC] PHP Strict Standards:  Only variables should be assigned by reference in /home/theartstrailco/public_html/wp-content/themes/artstrail/content-single-job_listing.php on line 21
[06-Aug-2015 14:33:09 UTC] PHP Strict Standards:  Only variables should be assigned by reference in /home/theartstrailco/public_html/wp-content/themes/artstrail/content-single-job_listing.php on line 21
[06-Aug-2015 14:34:59 UTC] PHP Strict Standards:  Only variables should be assigned by reference in /home/theartstrailco/public_html/wp-content/themes/artstrail/content-single-job_listing.php on line 21
[06-Aug-2015 14:35:59 UTC] PHP Strict Standards:  Only variables should be assigned by reference in /home/theartstrailco/public_html/wp-content/themes/artstrail/content-single-job_listing.php on line 21
[07-Aug-2015 19:15:34 UTC] PHP Strict Standards:  Only variables should be assigned by reference in /home/theartstrailco/public_html/wp-content/themes/artstrail/content-single-job_listing.php on line 21
[07-Aug-2015 19:15:44 UTC] PHP Strict Standards:  Only variables should be assigned by reference in /home/theartstrailco/public_html/wp-content/themes/artstrail/content-single-job_listing.php on line 21
[07-Aug-2015 19:16:36 UTC] PHP Strict Standards:  Only variables should be assigned by reference in /home/theartstrailco/public_html/wp-content/themes/artstrail/content-single-job_listing.php on line 21
[07-Aug-2015 19:16:42 UTC] PHP Strict Standards:  Only variables should be assigned by reference in /home/theartstrailco/public_html/wp-content/themes/artstrail/content-single-job_listing.php on line 21
[08-Aug-2015 11:32:52 UTC] PHP Strict Standards:  Only variables should be assigned by reference in /home/theartstrailco/public_html/wp-content/themes/artstrail/content-single-job_listing.php on line 21
[08-Aug-2015 13:20:15 UTC] PHP Strict Standards:  Only variables should be assigned by reference in /home/theartstrailco/public_html/wp-content/themes/artstrail/content-single-job_listing.php on line 21
[08-Aug-2015 13:28:44 UTC] PHP Strict Standards:  Only variables should be assigned by reference in /home/theartstrailco/public_html/wp-content/themes/artstrail/content-single-job_listing.php on line 21
[08-Aug-2015 13:33:27 UTC] PHP Strict Standards:  Only variables should be assigned by reference in /home/theartstrailco/public_html/wp-content/themes/artstrail/content-single-job_listing.php on line 21
[08-Aug-2015 13:38:09 UTC] PHP Strict Standards:  Only variables should be assigned by reference in /home/theartstrailco/public_html/wp-content/themes/artstrail/content-single-job_listing.php on line 21
[08-Aug-2015 13:39:19 UTC] PHP Strict Standards:  Only variables should be assigned by reference in /home/theartstrailco/public_html/wp-content/themes/artstrail/content-single-job_listing.php on line 21
[08-Aug-2015 13:43:19 UTC] PHP Strict Standards:  Only variables should be assigned by reference in /home/theartstrailco/public_html/wp-content/themes/artstrail/content-single-job_listing.php on line 21
[10-Aug-2015 03:07:00 UTC] PHP Strict Standards:  Only variables should be assigned by reference in /home/theartstrailco/public_html/wp-content/themes/artstrail/content-single-job_listing.php on line 21
[12-Aug-2015 21:35:58 UTC] WordPress database error Deadlock found when trying to get lock; try restarting transaction for query DELETE FROM `wp_options` WHERE `option_name` = '_transient_wpjmel_location_5d2deb0db31f7098a16a35fc658c1ea8' made by require('wp-blog-header.php'), require_once('wp-includes/template-loader.php'), include('/themes/listify/404.php'), get_header, locate_template, load_template, require_once('/themes/artstrail/header.php'), wp_head, do_action('wp_head'), call_user_func_array, wp_enqueue_scripts, do_action('wp_enqueue_scripts'), call_user_func_array, WP_Job_Manager_Extended_Location->enqueue_scripts, WP_Job_Manager_Extended_Location->get_user_ip_location, get_transient, delete_option
[13-Aug-2015 10:08:51 UTC] PHP Strict Standards:  Only variables should be assigned by reference in /home/theartstrailco/public_html/wp-content/themes/artstrail/content-single-job_listing.php on line 21
[13-Aug-2015 18:21:44 UTC] PHP Strict Standards:  Only variables should be assigned by reference in /home/theartstrailco/public_html/wp-content/themes/artstrail/content-single-job_listing.php on line 21
[13-Aug-2015 18:22:24 UTC] PHP Strict Standards:  Only variables should be assigned by reference in /home/theartstrailco/public_html/wp-content/themes/artstrail/content-single-job_listing.php on line 21
[13-Aug-2015 18:22:39 UTC] PHP Strict Standards:  Only variables should be assigned by reference in /home/theartstrailco/public_html/wp-content/themes/artstrail/content-single-job_listing.php on line 21
[13-Aug-2015 18:25:59 UTC] PHP Strict Standards:  Only variables should be assigned by reference in /home/theartstrailco/public_html/wp-content/themes/artstrail/content-single-job_listing.php on line 21
[13-Aug-2015 18:26:15 UTC] PHP Strict Standards:  Only variables should be assigned by reference in /home/theartstrailco/public_html/wp-content/themes/artstrail/content-single-job_listing.php on line 21
[14-Aug-2015 09:59:49 UTC] PHP Strict Standards:  Only variables should be assigned by reference in /home/theartstrailco/public_html/wp-content/themes/artstrail/content-single-job_listing.php on line 21
[14-Aug-2015 10:00:17 UTC] PHP Strict Standards:  Only variables should be assigned by reference in /home/theartstrailco/public_html/wp-content/themes/artstrail/content-single-job_listing.php on line 21
[14-Aug-2015 10:01:10 UTC] PHP Strict Standards:  Only variables should be assigned by reference in /home/theartstrailco/public_html/wp-content/themes/artstrail/content-single-job_listing.php on line 21
[14-Aug-2015 12:05:12 UTC] PHP Strict Standards:  Only variables should be assigned by reference in /home/theartstrailco/public_html/wp-content/themes/artstrail/content-single-job_listing.php on line 21
[14-Aug-2015 12:05:21 UTC] PHP Strict Standards:  Only variables should be assigned by reference in /home/theartstrailco/public_html/wp-content/themes/artstrail/content-single-job_listing.php on line 21
[14-Aug-2015 12:05:25 UTC] PHP Strict Standards:  Only variables should be assigned by reference in /home/theartstrailco/public_html/wp-content/themes/artstrail/content-single-job_listing.php on line 21
[14-Aug-2015 12:05:34 UTC] PHP Strict Standards:  Only variables should be assigned by reference in /home/theartstrailco/public_html/wp-content/themes/artstrail/content-single-job_listing.php on line 21
[14-Aug-2015 13:05:11 UTC] PHP Strict Standards:  Only variables should be assigned by reference in /home/theartstrailco/public_html/wp-content/themes/artstrail/content-single-job_listing.php on line 21
[14-Aug-2015 13:14:33 UTC] PHP Strict Standards:  Only variables should be assigned by reference in /home/theartstrailco/public_html/wp-content/themes/artstrail/content-single-job_listing.php on line 21
[14-Aug-2015 15:25:11 UTC] PHP Strict Standards:  Only variables should be assigned by reference in /home/theartstrailco/public_html/wp-content/themes/artstrail/content-single-job_listing.php on line 21
[14-Aug-2015 15:42:37 UTC] PHP Strict Standards:  Only variables should be assigned by reference in /home/theartstrailco/public_html/wp-content/themes/artstrail/content-single-job_listing.php on line 21
[14-Aug-2015 15:45:46 UTC] PHP Strict Standards:  Only variables should be assigned by reference in /home/theartstrailco/public_html/wp-content/themes/artstrail/content-single-job_listing.php on line 21
[14-Aug-2015 15:47:41 UTC] PHP Strict Standards:  Only variables should be assigned by reference in /home/theartstrailco/public_html/wp-content/themes/artstrail/content-single-job_listing.php on line 21
